<svg width="48" height="48" viewBox="0 0 48 48" fill="none" xmlns="http://www.w3.org/2000/svg">
<path fill-rule="evenodd" clip-rule="evenodd" d="M48 24.2963C48 10.7449 37.2551 0 23.7037 0C10.7449 0 0 10.7449 0 24.2963C0 37.2551 10.7449 48 23.7037 48C37.2551 48 48 37.2551 48 24.2963Z" fill="#07C160"/>
<path fill-rule="evenodd" clip-rule="evenodd" d="M19.9891 29.6059L13.3816 22.9984L11.26 25.12L19.282 33.142C19.6725 33.5325 20.3057 33.5325 20.6962 33.142L36.74 17.0982L34.6184 14.9766L19.9891 29.6059Z" fill="white"/>
</svg>
